run/dump.vcd
$version Generated by VerilatedVcd $end
$timescale 1ps $end
 $scope module smoke_tb $end
  $var wire 32 5! R [31:0] $end
  $var wire 32 5! C [31:0] $end
  $var wire 32 6! K [31:0] $end
  $var wire 32 7! WX [31:0] $end
  $var wire 32 8! WK [31:0] $end
  $var wire 32 5! LM [31:0] $end
  $var wire 32 9! LA [31:0] $end
  $var wire 32 :! WM [31:0] $end
  $var wire 32 ;! WY [31:0] $end
  $var wire 32 <! P_VALID [31:0] $end
  $var wire 32 =! P_READY [31:0] $end
  $var wire 32 =! CLK_PERIOD [31:0] $end
  $var wire 1 2! clk $end
  $var wire 1 # rstn $end
  $var wire 1 (! s_ready $end
  $var wire 1 $ s_valid $end
  $var wire 1 % s_last $end
  $var wire 1 & m_ready $end
  $var wire 1 Y m_valid $end
  $var wire 1 Z m_last $end
  $var wire 16 ' sx_data [15:0] $end
  $var wire 8 ( sk_data [7:0] $end
  $var wire 30 [ m_data [29:0] $end
  $var wire 48 ) mat_k [47:0] $end
  $var wire 96 + mat_x [95:0] $end
  $var wire 60 . mat_y_sim [59:0] $end
  $var wire 60 0 mat_y_ref [59:0] $end
  $var wire 32 2 c [31:0] $end
  $scope module DUT $end
   $var wire 32 5! R [31:0] $end
   $var wire 32 5! C [31:0] $end
   $var wire 32 7! WX [31:0] $end
   $var wire 32 8! WK [31:0] $end
   $var wire 32 ;! WY [31:0] $end
   $var wire 32 5! LM [31:0] $end
   $var wire 32 9! LA [31:0] $end
   $var wire 1 2! clk $end
   $var wire 1 # rstn $end
   $var wire 1 $ s_valid $end
   $var wire 1 % s_last $end
   $var wire 1 & m_ready $end
   $var wire 1 (! s_ready $end
   $var wire 1 Y m_valid $end
   $var wire 1 Z m_last $end
   $var wire 16 ' sx_data [15:0] $end
   $var wire 8 ( sk_data [7:0] $end
   $var wire 30 [ m_data [29:0] $end
   $var wire 32 9! D [31:0] $end
   $var wire 32 :! WM [31:0] $end
   $var wire 1 (! en_mac $end
   $var wire 1 3! en_shift $end
   $var wire 16 O xi_delayed [15:0] $end
   $var wire 8 P ki_delayed [7:0] $end
   $var wire 8 3 sk_reversed [7:0] $end
   $var wire 32 Q xi [31:0] $end
   $var wire 16 R ki [15:0] $end
   $var wire 48 j mo [47:0] $end
   $var wire 60 p ao [59:0] $end
   $var wire 60 \ ro [59:0] $end
   $var wire 3 ^ r_valid [2:0] $end
   $var wire 3 _ r_last [2:0] $end
   $var wire 3 ` r_copy [2:0] $end
   $var wire 3 4! r_clear [2:0] $end
   $var wire 3 )! conflict [2:0] $end
   $var wire 3 a a_valid [2:0] $end
   $var wire 3 b m_first [2:0] $end
   $var wire 8 F valid [7:0] $end
   $var wire 8 G vlast [7:0] $end
   $scope module AR[0] $end
    $scope module AC[0] $end
     $var wire 32 >! d [31:0] $end
     $scope module ACC $end
      $var wire 32 :! WX [31:0] $end
      $var wire 32 ;! WY [31:0] $end
      $var wire 32 9! L [31:0] $end
      $var wire 1 2! clk $end
      $var wire 1 # rstn $end
      $var wire 1 (! en $end
      $var wire 1 H x_valid $end
      $var wire 1 c first $end
      $var wire 12 l x [11:0] $end
      $var wire 15 r y [14:0] $end
      $var wire 15 d a [14:0] $end
      $scope module mac_delay $end
       $var wire 32 5! N [31:0] $end
       $var wire 32 5! NO [31:0] $end
       $var wire 32 ;! W [31:0] $end
       $var wire 1 2! c $end
       $var wire 1 (! e $end
       $var wire 1 # rng $end
       $var wire 1 # rnl $end
       $var wire 15 d i [14:0] $end
       $var wire 15 r o [14:0] $end
       $var wire 30 s d [29:0] $end
       $var wire 45 t data [44:0] $end
      $upscope $end
     $upscope $end
    $upscope $end
    $scope module AC[1] $end
     $var wire 32 <! d [31:0] $end
     $scope module ACC $end
      $var wire 32 :! WX [31:0] $end
      $var wire 32 ;! WY [31:0] $end
      $var wire 32 9! L [31:0] $end
      $var wire 1 2! clk $end
      $var wire 1 # rstn $end
      $var wire 1 (! en $end
      $var wire 1 I x_valid $end
      $var wire 1 e first $end
      $var wire 12 m x [11:0] $end
      $var wire 15 v y [14:0] $end
      $var wire 15 f a [14:0] $end
      $scope module mac_delay $end
       $var wire 32 5! N [31:0] $end
       $var wire 32 5! NO [31:0] $end
       $var wire 32 ;! W [31:0] $end
       $var wire 1 2! c $end
       $var wire 1 (! e $end
       $var wire 1 # rng $end
       $var wire 1 # rnl $end
       $var wire 15 f i [14:0] $end
       $var wire 15 v o [14:0] $end
       $var wire 30 w d [29:0] $end
       $var wire 45 x data [44:0] $end
      $upscope $end
     $upscope $end
    $upscope $end
   $upscope $end
   $scope module AR[1] $end
    $scope module AC[0] $end
     $var wire 32 <! d [31:0] $end
     $scope module ACC $end
      $var wire 32 :! WX [31:0] $end
      $var wire 32 ;! WY [31:0] $end
      $var wire 32 9! L [31:0] $end
      $var wire 1 2! clk $end
      $var wire 1 # rstn $end
      $var wire 1 (! en $end
      $var wire 1 I x_valid $end
      $var wire 1 e first $end
      $var wire 12 n x [11:0] $end
      $var wire 15 z y [14:0] $end
      $var wire 15 g a [14:0] $end
      $scope module mac_delay $end
       $var wire 32 5! N [31:0] $end
       $var wire 32 5! NO [31:0] $end
       $var wire 32 ;! W [31:0] $end
       $var wire 1 2! c $end
       $var wire 1 (! e $end
       $var wire 1 # rng $end
       $var wire 1 # rnl $end
       $var wire 15 g i [14:0] $end
       $var wire 15 z o [14:0] $end
       $var wire 30 { d [29:0] $end
       $var wire 45 | data [44:0] $end
      $upscope $end
     $upscope $end
    $upscope $end
    $scope module AC[1] $end
     $var wire 32 5! d [31:0] $end
     $scope module ACC $end
      $var wire 32 :! WX [31:0] $end
      $var wire 32 ;! WY [31:0] $end
      $var wire 32 9! L [31:0] $end
      $var wire 1 2! clk $end
      $var wire 1 # rstn $end
      $var wire 1 (! en $end
      $var wire 1 J x_valid $end
      $var wire 1 h first $end
      $var wire 12 o x [11:0] $end
      $var wire 15 ~ y [14:0] $end
      $var wire 15 i a [14:0] $end
      $scope module mac_delay $end
       $var wire 32 5! N [31:0] $end
       $var wire 32 5! NO [31:0] $end
       $var wire 32 ;! W [31:0] $end
       $var wire 1 2! c $end
       $var wire 1 (! e $end
       $var wire 1 # rng $end
       $var wire 1 # rnl $end
       $var wire 15 i i [14:0] $end
       $var wire 15 ~ o [14:0] $end
       $var wire 30 !! d [29:0] $end
       $var wire 45 "! data [44:0] $end
      $upscope $end
     $upscope $end
    $upscope $end
   $upscope $end
   $scope module MR[0] $end
    $scope module MC[0] $end
     $scope module MUL $end
      $var wire 32 7! WX [31:0] $end
      $var wire 32 8! WK [31:0] $end
      $var wire 32 5! L [31:0] $end
      $var wire 32 :! WY [31:0] $end
      $var wire 1 2! clk $end
      $var wire 1 # rstn $end
      $var wire 1 (! en $end
      $var wire 8 S x [7:0] $end
      $var wire 4 T k [3:0] $end
      $var wire 12 l y [11:0] $end
      $var wire 12 *! m [11:0] $end
      $scope module mac_delay $end
       $var wire 32 <! N [31:0] $end
       $var wire 32 <! NO [31:0] $end
       $var wire 32 :! W [31:0] $end
       $var wire 1 2! c $end
       $var wire 1 (! e $end
       $var wire 1 # rng $end
       $var wire 1 # rnl $end
       $var wire 12 *! i [11:0] $end
       $var wire 12 l o [11:0] $end
       $var wire 12 *! d [11:0] $end
       $var wire 24 $! data [23:0] $end
      $upscope $end
     $upscope $end
    $upscope $end
    $scope module MC[1] $end
     $scope module MUL $end
      $var wire 32 7! WX [31:0] $end
      $var wire 32 8! WK [31:0] $end
      $var wire 32 5! L [31:0] $end
      $var wire 32 :! WY [31:0] $end
      $var wire 1 2! clk $end
      $var wire 1 # rstn $end
      $var wire 1 (! en $end
      $var wire 8 +! x [7:0] $end
      $var wire 4 U k [3:0] $end
      $var wire 12 m y [11:0] $end
      $var wire 12 ,! m [11:0] $end
      $scope module mac_delay $end
       $var wire 32 <! N [31:0] $end
       $var wire 32 <! NO [31:0] $end
       $var wire 32 :! W [31:0] $end
       $var wire 1 2! c $end
       $var wire 1 (! e $end
       $var wire 1 # rng $end
       $var wire 1 # rnl $end
       $var wire 12 ,! i [11:0] $end
       $var wire 12 m o [11:0] $end
       $var wire 12 ,! d [11:0] $end
       $var wire 24 %! data [23:0] $end
      $upscope $end
     $upscope $end
    $upscope $end
   $upscope $end
   $scope module MR[1] $end
    $scope module MC[0] $end
     $scope module MUL $end
      $var wire 32 7! WX [31:0] $end
      $var wire 32 8! WK [31:0] $end
      $var wire 32 5! L [31:0] $end
      $var wire 32 :! WY [31:0] $end
      $var wire 1 2! clk $end
      $var wire 1 # rstn $end
      $var wire 1 (! en $end
      $var wire 8 V x [7:0] $end
      $var wire 4 -! k [3:0] $end
      $var wire 12 n y [11:0] $end
      $var wire 12 .! m [11:0] $end
      $scope module mac_delay $end
       $var wire 32 <! N [31:0] $end
       $var wire 32 <! NO [31:0] $end
       $var wire 32 :! W [31:0] $end
       $var wire 1 2! c $end
       $var wire 1 (! e $end
       $var wire 1 # rng $end
       $var wire 1 # rnl $end
       $var wire 12 .! i [11:0] $end
       $var wire 12 n o [11:0] $end
       $var wire 12 .! d [11:0] $end
       $var wire 24 &! data [23:0] $end
      $upscope $end
     $upscope $end
    $upscope $end
    $scope module MC[1] $end
     $scope module MUL $end
      $var wire 32 7! WX [31:0] $end
      $var wire 32 8! WK [31:0] $end
      $var wire 32 5! L [31:0] $end
      $var wire 32 :! WY [31:0] $end
      $var wire 1 2! clk $end
      $var wire 1 # rstn $end
      $var wire 1 (! en $end
      $var wire 8 /! x [7:0] $end
      $var wire 4 0! k [3:0] $end
      $var wire 12 o y [11:0] $end
      $var wire 12 1! m [11:0] $end
      $scope module mac_delay $end
       $var wire 32 <! N [31:0] $end
       $var wire 32 <! NO [31:0] $end
       $var wire 32 :! W [31:0] $end
       $var wire 1 2! c $end
       $var wire 1 (! e $end
       $var wire 1 # rng $end
       $var wire 1 # rnl $end
       $var wire 12 1! i [11:0] $end
       $var wire 12 o o [11:0] $end
       $var wire 12 1! d [11:0] $end
       $var wire 24 '! data [23:0] $end
      $upscope $end
     $upscope $end
    $upscope $end
   $upscope $end
   $scope module TRI_K $end
    $var wire 32 8! W [31:0] $end
    $var wire 32 5! N [31:0] $end
    $var wire 1 2! clk $end
    $var wire 1 # rstn $end
    $var wire 1 (! cen $end
    $var wire 8 3 x [7:0] $end
    $var wire 8 P y [7:0] $end
    $var wire 16 W buffer [15:0] $end
   $upscope $end
   $scope module TRI_X $end
    $var wire 32 7! W [31:0] $end
    $var wire 32 5! N [31:0] $end
    $var wire 1 2! clk $end
    $var wire 1 # rstn $end
    $var wire 1 (! cen $end
    $var wire 16 ' x [15:0] $end
    $var wire 16 O y [15:0] $end
    $var wire 32 X buffer [31:0] $end
   $upscope $end
   $scope module VALID $end
    $var wire 32 7! N [31:0] $end
    $var wire 32 7! NO [31:0] $end
    $var wire 32 <! W [31:0] $end
    $var wire 1 2! c $end
    $var wire 1 (! e $end
    $var wire 1 # rng $end
    $var wire 1 # rnl $end
    $var wire 1 $ i [0:0] $end
    $var wire 1 K o [0:0] $end
    $var wire 8 F d [7:0] $end
    $var wire 9 L data [8:0] $end
   $upscope $end
   $scope module VLAST $end
    $var wire 32 7! N [31:0] $end
    $var wire 32 7! NO [31:0] $end
    $var wire 32 <! W [31:0] $end
    $var wire 1 2! c $end
    $var wire 1 (! e $end
    $var wire 1 # rng $end
    $var wire 1 # rnl $end
    $var wire 1 4 i [0:0] $end
    $var wire 1 M o [0:0] $end
    $var wire 8 G d [7:0] $end
    $var wire 9 N data [8:0] $end
   $upscope $end
  $upscope $end
  $scope module unnamedblk1 $end
   $var wire 32 5 k [31:0] $end
   $scope module unnamedblk2 $end
    $var wire 32 6 c [31:0] $end
   $upscope $end
  $upscope $end
  $scope module unnamedblk10 $end
   $var wire 32 7 k [31:0] $end
   $scope module unnamedblk11 $end
    $var wire 32 8 r [31:0] $end
   $upscope $end
  $upscope $end
  $scope module unnamedblk12 $end
   $var wire 32 9 c [31:0] $end
   $scope module unnamedblk13 $end
    $var wire 32 : r [31:0] $end
   $upscope $end
  $upscope $end
  $scope module unnamedblk14 $end
   $var wire 32 ; k [31:0] $end
  $upscope $end
  $scope module unnamedblk15 $end
   $var wire 32 < r [31:0] $end
  $upscope $end
  $scope module unnamedblk16 $end
   $var wire 32 = c [31:0] $end
   $scope module unnamedblk17 $end
    $var wire 32 > r [31:0] $end
   $upscope $end
  $upscope $end
  $scope module unnamedblk3 $end
   $var wire 32 ? k [31:0] $end
   $scope module unnamedblk4 $end
    $var wire 32 @ r [31:0] $end
   $upscope $end
  $upscope $end
  $scope module unnamedblk5 $end
   $var wire 32 A r [31:0] $end
   $scope module unnamedblk6 $end
    $var wire 32 B c [31:0] $end
    $scope module unnamedblk7 $end
     $var wire 32 C k [31:0] $end
    $upscope $end
   $upscope $end
  $upscope $end
  $scope module unnamedblk8 $end
   $var wire 32 D k [31:0] $end
   $scope module unnamedblk9 $end
    $var wire 32 E c [31:0] $end
   $upscope $end
  $upscope $end
 $upscope $end
$enddefinitions $end


#0
0#
0$
0%
0&
b0000000000000000 '
b00000000 (
b111001101110101010110001111101111111110111110011 )
b010100010010000111011101101100101101001101101100011111111000101100110010001110111000100111010010 +
b000000000000000000000000000000000000000000000000000000000000 .
b000000001001011111111010100110000010000001001111111010011000 0
b00000000000000000000000000000000 2
b00000000 3
04
b00000000000000000000000000000110 5
b00000000000000000000000000000010 6
b00000000000000000000000000000110 7
b00000000000000000000000000000010 8
b00000000000000000000000000000010 9
b00000000000000000000000000000010 :
b00000000000000000000000000000000 ;
b00000000000000000000000000000000 <
b00000000000000000000000000000000 =
b00000000000000000000000000000000 >
b00000000000000000000000000000110 ?
b00000000000000000000000000000010 @
b00000000000000000000000000000010 A
b00000000000000000000000000000010 B
b00000000000000000000000000000110 C
b00000000000000000000000000000110 D
b00000000000000000000000000000010 E
b00000000 F
b00000000 G
0H
0I
0J
0K
b000000000 L
0M
b000000000 N
b0000000000000000 O
b00000000 P
b00000000000000000000000000000000 Q
b0000000000000000 R
b00000000 S
b0000 T
b0000 U
b00000000 V
b0000000000000000 W
b00000000000000000000000000000000 X
0Y
0Z
b000000000000000000000000000000 [
b000000000000000000000000000000000000000000000000000000000000 \
b000 ^
b000 _
b000 `
b000 a
b000 b
0c
b000000000000000 d
0e
b000000000000000 f
b000000000000000 g
0h
b000000000000000 i
b000000000000000000000000000000000000000000000000 j
b000000000000 l
b000000000000 m
b000000000000 n
b000000000000 o
b000000000000000000000000000000000000000000000000000000000000 p
b000000000000000 r
b000000000000000000000000000000 s
b000000000000000000000000000000000000000000000 t
b000000000000000 v
b000000000000000000000000000000 w
b000000000000000000000000000000000000000000000 x
b000000000000000 z
b000000000000000000000000000000 {
b000000000000000000000000000000000000000000000 |
b000000000000000 ~
b000000000000000000000000000000 !!
b000000000000000000000000000000000000000000000 "!
b000000000000000000000000 $!
b000000000000000000000000 %!
b000000000000000000000000 &!
b000000000000000000000000 '!
1(!
b000 )!
b000000000000 *!
b00000000 +!
b000000000000 ,!
b0000 -!
b000000000000 .!
b00000000 /!
b0000 0!
b000000000000 1!
02!
03!
b000 4!
b00000000000000000000000000000010 5!
b00000000000000000000000000000110 6!
b00000000000000000000000000001000 7!
b00000000000000000000000000000100 8!
b00000000000000000000000000000011 9!
b00000000000000000000000000001100 :!
b00000000000000000000000000001111 ;!
b00000000000000000000000000000001 <!
b00000000000000000000000001100100 =!
b00000000000000000000000000000000 >!
#50000
1#
12!
#100000
02!
#150000
12!
#200000
02!
#250000
12!
#250001
1$
b1000100111010010 '
b11110011 (
b00111111 3
b00000001 F
b000000001 L
b0000000011010010 O
b00001111 P
b00000000000000000000000011010010 Q
b0000000000001111 R
b11010010 S
b1111 T
b0000000000111111 W
b00000000000000001000100111010010 X
#300000
02!
#350000
b00000000000000000000000000000001 ;
b00000011 F
b000000011 L
b1000100111010010 O
b00111111 P
b00000000100010011101001011010010 Q
b0000111100111111 R
b0011 U
b10001001 V
b0011000000111111 W
b10001001000000001000100111010010 X
b000000000000000000101110 $!
b000000101110 *!
b11010010 +!
b1111 -!
12!
#350001
b0011001000111011 '
b11111101 (
b11011111 3
b1000100100111011 O
b00000000100010011101001000111011 Q
b00111011 S
b0011000011011111 W
b10001001000000000011001000111011 X
#400000
02!
#450000
b00000000000000000000000000000010 ;
b00000111 F
1H
b000000111 L
b0011001000111011 O
b11011111 P
b10001001001100100011101100111011 Q
b0011111111011111 R
b1101 U
b00110010 V
b1101000011011111 W
b00110010000000000011001000111011 X
b000000000000000000000000000000000000000000101110 j
b000000101110 l
b000000101110111111000101 $!
b000000000000111101110110 %!
b000000000000000001110111 &!
b111111000101 *!
b00111011 +!
b111101110110 ,!
b000001110111 .!
b10001001 /!
b0011 0!
12!
#450001
b0111111110001011 '
b11110111 (
b01111111 3
b0011001010001011 O
b10001001001100100011101110001011 Q
b10001011 S
b1101000001111111 W
b00110010000000000111111110001011 X
#500000
02!
#550000
b00000000000000000000000000000011 ;
b00001111 F
1I
b000001111 L
b0111111110001011 O
b01111111 P
b00110010011111111000101110001011 Q
b1101111101111111 R
b0111 U
b01111111 V
b0111000001111111 W
b01111111000000000111111110001011 X
b000000000101110 d
b000000000000000001110111111101110110111111000101 j
b111111000101 l
b111101110110 m
b000001110111 n
b000000000000000000000000101110 s
b000000000000000000000000000000000000000101110 t
b111111000101000001110101 $!
b111101110110111101001111 %!
b000001110111111111001110 &!
b000000000000111010011011 '!
b000001110101 *!
b10001011 +!
b111101001111 ,!
b111111001110 .!
b00110010 /!
b1101 0!
b111010011011 1!
12!
#550001
b1101001101101100 '
b10110001 (
b00011011 3
b0111111101101100 O
b01111011 P
b00110010011111111000101101101100 Q
b1101111101111011 R
b01101100 S
b1011 T
b0111000000011011 W
b01111111000000001101001101101100 X
#600000
02!
#650000
b00000000000000000000000000000100 ;
b00011111 F
1J
b000011111 L
b1101001101101100 O
b00011011 P
b01111111110100110110110001101100 Q
b0111101100011011 R
b0001 U
b11010011 V
b0001000000011011 W
b11010011000000001101001101101100 X
b111111111110011 d
b111111101110110 f
b000000001110111 g
b111010011011111111001110111101001111000001110101 j
b000001110101 l
b111101001111 m
b111111001110 n
b111010011011 o
b000000000101110111111111110011 s
b000000000000000000000000101110111111111110011 t
b000000000000000111111101110110 w
b000000000000000000000000000000111111101110110 x
b000000000000000000000001110111 {
b000000000000000000000000000000000000001110111 |
b000001110101110111100100 $!
b111101001111110011001101 %!
b111111001110111110000001 &!
b111010011011111101101010 '!
b110111100100 *!
b01101100 +!
b110011001101 ,!
b1011 -!
b111110000001 .!
b01111111 /!
b0111 0!
b111101101010 1!
12!
#650001
b1101110110110010 '
b11101010 (
b10101110 3
b1101001110110010 O
b00011110 P
b01111111110100110110110010110010 Q
b0111101100011110 R
b10110010 S
b1110 T
b0001000010101110 W
b11010011000000001101110110110010 X
#700000
02!
#750000
b00000000000000000000000000000101 ;
b00111111 F
b000111111 L
b1101110110110010 O
b10101110 P
b11010011110111011011001010110010 Q
b0001111010101110 R
b1010 U
b11011101 V
b1010000010101110 W
b11011101000000001101110110110010 X
b000000001101000 d
b111111011000101 f
b000000001000101 g
b111111010011011 i
b111101101010111110000001110011001101110111100100 j
b110111100100 l
b110011001101 m
b111110000001 n
b111101101010 o
b000000000000000000000000000000000000000000000000000000101110 p
b000000000101110 r
b111111111110011000000001101000 s
b000000000101110111111111110011000000001101000 t
b111111101110110111111011000101 w
b000000000000000111111101110110111111011000101 x
b000000001110111000000001000101 {
b000000000000000000000001110111000000001000101 |
b000000000000000111111010011011 !!
b000000000000000000000000000000111111010011011 "!
b110111100100000010011100 $!
b110011001101000001101100 %!
b111110000001000011100001 &!
b111101101010001101111001 '!
b000010011100 *!
b10110010 +!
b000001101100 ,!
b1110 -!
b000011100001 .!
b11010011 /!
b0001 0!
b001101111001 1!
12!
#750001
1%
b0101000100100001 '
b11100110 (
b01101110 3
14
b00000001 G
b000000001 N
b1101110100100001 O
b11010011110111011011001000100001 Q
b00100001 S
b1010000001101110 W
b11011101000000000101000100100001 X
#800000
02!
#850000
b00000000000000000000000000000110 ;
b01111111 F
b00000011 G
b001111111 L
b000000011 N
b0101000100100001 O
b01101110 P
b11011101010100010010000100100001 Q
b1010111001101110 R
b0110 U
b01010001 V
b0110000001101110 W
b01010001000000000101000100100001 X
b111111001001100 d
b111101110010010 f
b111111111000110 g
b111111000000101 i
b001101111001000011100001000001101100000010011100 j
b000010011100 l
b000001101100 m
b000011100001 n
b001101111001 o
b000000000000000000000001110111111111101110110111111111110011 p
b111111111110011 r
b000000001101000111111001001100 s
b111111111110011000000001101000111111001001100 t
b111111101110110 v
b111111011000101111101110010010 w
b111111101110110111111011000101111101110010010 x
b000000001110111 z
b000000001000101111111111000110 {
b000000001110111000000001000101111111111000110 |
b111111010011011111111000000101 !!
b000000000000000111111010011011111111000000101 "!
b000010011100111110111110 $!
b000001101100000111010100 %!
b000011100001000001000110 &!
b001101111001111111010011 '!
b111110111110 *!
b00100001 +!
b000111010100 ,!
b000001000110 .!
b11011101 /!
b1010 0!
b111111010011 1!
12!
#850001
0$
0%
1&
04
b01111110 F
b00000010 G
b001111110 L
b000000010 N
#900000
02!
#950000
b11111100 F
b00000100 G
b011111100 L
b000000100 N
b01010001010100010010000100100001 Q
b0110111001101110 R
b111111011101000 d
b111101111111110 f
b000000010100111 g
b000000101111110 i
b111111010011000001000110000111010100111110111110 j
b111110111110 l
b000111010100 m
b000001000110 n
b111111010011 o
b111111010011011000000001000101111111011000101000000001101000 p
b000000001101000 r
b111111001001100111111011101000 s
b000000001101000111111001001100111111011101000 t
b111111011000101 v
b111101110010010111101111111110 w
b111111011000101111101110010010111101111111110 x
b000000001000101 z
b111111111000110000000010100111 {
b000000001000101111111111000110000000010100111 |
b111111010011011 ~
b111111000000101000000101111110 !!
b111111010011011111111000000101000000101111110 "!
b111110111110111110111110 $!
b000111010100000011000110 %!
b000001000110111101011110 &!
b111111010011000011010010 '!
b000011000110 ,!
b111101011110 .!
b01010001 /!
b0110 0!
b000011010010 1!
12!
#1000000
02!
#1050000
b11111000 F
b00001000 G
0H
1K
b111111000 L
b000001000 N
b001 b
1c
b111111010100110 d
b111110111010010 f
b000000011101101 g
b000000101010001 i
b000011010010111101011110000011000110111110111110 j
b000011000110 m
b111101011110 n
b000011010010 o
b111111000000101111111111000110111101110010010111111001001100 p
b111111001001100 r
b111111011101000111111010100110 s
b111111001001100111111011101000111111010100110 t
b111101110010010 v
b111101111111110111110111010010 w
b111101110010010111101111111110111110111010010 x
b111111111000110 z
b000000010100111000000011101101 {
b111111111000110000000010100111000000011101101 |
b111111000000101 ~
b000000101111110000000101010001 !!
b111111000000101000000101111110000000101010001 "!
b000011000110000011000110 %!
b111101011110111101011110 &!
b000011010010000111100110 '!
b000111100110 1!
12!
#1100000
02!
#1150000
b11110000 F
b00010000 G
0I
b111110000 L
b000010000 N
b011 b
1e
b111111010011000 f
b000000001001011 g
b000001000100011 i
b000111100110111101011110000011000110111110111110 j
b000111100110 o
b000000101111110000000010100111111101111111110111111011101000 p
b111111011101000 r
b111111010100110111111010100110 s
b111111011101000111111010100110111111010100110 t
b111101111111110 v
b111110111010010111111010011000 w
b111101111111110111110111010010111111010011000 x
b000000010100111 z
b000000011101101000000001001011 {
b000000010100111000000011101101000000001001011 |
b000000101111110 ~
b000000101010001000001000100011 !!
b000000101111110000000101010001000001000100011 "!
b000111100110000111100110 '!
12!
#1200000
02!
#1250000
b11100000 F
b00100000 G
0J
b111100000 L
b000100000 N
b001 `
b001 a
b111 b
1h
b000010000001001 i
b000000101010001000000011101101111110111010010111111010100110 p
b111111010100110 r
b111111010100110111111010100110111111010100110 t
b111110111010010 v
b111111010011000111111010011000 w
b111110111010010111111010011000111111010011000 x
b000000011101101 z
b000000001001011000000001001011 {
b000000011101101000000001001011000000001001011 |
b000000101010001 ~
b000001000100011000010000001001 !!
b000000101010001000001000100011000010000001001 "!
12!
#1300000
02!
#1350000
b11000000 F
b01000000 G
b111000000 L
b001000000 N
b000000000000000000000000000000000000000000000111111010100110 \
b001 ^
b001 _
b010 `
b010 a
b000001000100011000000001001011111111010011000111111010100110 p
b111111010011000 v
b111111010011000111111010011000111111010011000 x
b000000001001011 z
b000000001001011000000001001011000000001001011 |
b000001000100011 ~
b000010000001001000010000001001 !!
b000001000100011000010000001001000010000001001 "!
12!
#1400000
02!
#1450000
b10000000 F
b10000000 G
b110000000 L
b010000000 N
b000000000000000111111010011000 [
b000000000000000000000001001011111111010011000111111010100110 \
b011 ^
b100 `
b100 a
b000010000001001000000001001011111111010011000111111010100110 p
b000010000001001 ~
b000010000001001000010000001001000010000001001 "!
12!
#1500000
02!
#1550000
b00000000 F
b00000000 G
b100000000 L
1M
b100000000 N
1Y
b000010000001001111111010011000 [
b000010000001001000000001001011111111010011000111111010100110 \
b111 ^
b000 `
b000 a
12!
13!
b001 4!
#1600000
02!
#1650000
b000000000000000000000000000000000010000001001111111010011000 .
b00000000000000000000000000000001 2
b00000000000000000000000000000010 <
0K
b000000000 L
0M
b000000000 N
b000000001001011111111010100110 [
b000000001001011000000001001011111111010100110111111010100110 \
b110 ^
b010 _
12!
b010 4!
#1700000
02!
#1750000
b000000001001011111111010100110000010000001001111111010011000 .
b00000000000000000000000000000010 2
1Z
b100 ^
b100 _
12!
b100 4!
#1800000
02!
#1850000
b000000001001011111111010100110000000000000100101111010011000 .
b00000000000000000000000000000011 2
0Y
0Z
b000 ^
b000 _
12!
03!
b000 4!
#1900000
02!
#1950000
b00000000000000000000000000000010 =
b00000000000000000000000000000010 >
12!
